-3.097284385904645609e-01 -1.193530718747379593e+00 2.627412807728858324e-01 5.758577295260499662e-01 1.699085245402801592e+00 -2.169606537085686793e-01 -4.537201401084829944e-01 4.330805462061111943e-01 -1.227339060818732008e+00 -3.780282608422056434e-01 -2.488262245079170043e+00 8.500717924086008681e-01
-6.815635895622454976e-01 7.167436536784553835e-01 -8.122746501262628760e-01 2.068631974305303600e-01 -1.458376375176514195e+00 1.233281201046559777e-01 -1.465739960275658671e+00 -2.204886719532380968e-01 7.090882489635031982e-01 5.796530445205466675e-01 1.197218835526190572e+00 2.896580742544960230e-01
-8.638865288949391930e-02 6.893552490513921160e-01 -3.499831394411938579e-01 5.717730008725682156e-01 1.930036936107445644e+00 -4.808232485088785313e-01 8.886382899935600932e-01 -1.561545085963937929e+00 1.661676040897497986e+00 -1.414178974420849388e-01 -5.734417015485753222e-01 1.446070154470476155e+00
8.709990152319131707e-02 8.075209938172003277e-01 -4.462486161331476464e-01 1.108070531081235988e+00 2.121542189869852102e+00 4.190357013427999378e-01 2.451320800354521712e+00 -3.013923155320588076e-01 -1.125512324008459908e+00 8.062983424906186025e-01 6.785269937952869146e-01 2.925352252086952862e-03
-2.316488900726726641e+00 -3.223138007931722893e-01 -1.529825681333834078e-02 6.213831169354336499e-03 3.753320526293440484e-01 -2.554355073176291846e+00 1.507826175925304435e+00 1.592796482130326152e-01 -1.363115542850566131e+00 -8.354423061661857552e-01 5.781378128639417247e-01 5.520645045109493498e-01
-6.630687168603000003e-01 -1.183834596521130322e+00 1.240586700091798500e+00 2.298453999405184689e+00 -2.142625939809887914e+00 1.089513289155978448e+00 -1.172718397712423588e+00 5.942566512865570250e-01 -1.733472513256998582e+00 1.230460601234515394e+00 -1.471864648685607735e+00 2.132085005138059763e+00
3.348892338050507012e-01 5.797081042399364614e-01 -1.101712119224714348e+00 1.152802915828500918e+00 -1.130478392420890765e+00 -4.773231143911194074e-01 -8.441344597025335350e-01 -3.761171633454910013e-01 5.680332642591110481e-01 1.411602996177221403e-01 -7.670562418054419629e-01 6.342900736177142784e-01
-8.528586850549267906e-01 -1.557644769699029208e-01 -2.805081399190055835e-01 1.133508950944740024e+00 1.742255360033149181e+00 6.433129685408223164e-01 -2.270171081829551074e+00 -8.055192083566675709e-01 -7.661817527892487156e-01 1.092672273285478779e+00 9.571514697385680170e-01 -1.208351293662262682e+00
1.616124657533884457e-01 6.874069421411649339e-01 -2.189248216272967618e-01 -7.017010253531039687e-01 7.575932050483746849e-01 -1.090715663254191670e+00 2.107042963913587919e+00 1.326827362215454165e-01 1.056787555145825452e+00 -2.039602075545980941e-01 1.536157564283117338e+00 1.253740494794408411e+00
-2.877356962085698133e-01 -7.663070534484844876e-01 -1.751379484907020778e-01 -4.006497544463978322e-01 -5.149823283215727576e-01 -9.680471568157330564e-01 4.969759228375979498e-01 -9.503442839726947700e-01 1.181686270771728164e+00 1.089840956770842473e+00 -3.796692442561923619e-01 -1.191905759405798015e+00
-1.696250229633763817e+00 1.729579118793245912e-02 -8.949746602287673991e-02 -3.811531654190594143e-01 1.092606608361394116e+00 2.142574278250478081e-01 4.749832359988900854e-02 6.892856105093798647e-01 1.059507187821077778e+00 1.363928073214410452e-01 1.677495618788860110e+00 -1.636953245765625287e+00
-8.248381076352727659e-01 1.418002166619522830e+00 2.710774622471700535e-01 4.717583905584549764e-01 1.045537686478378969e+00 5.022234314956799395e-01 -5.862724813831702297e-01 -1.234772362083625952e+00 -8.859483719239462651e-01 1.179951094235846210e+00 7.402178055535036938e-01 1.281415613456383662e+00
1.980829918579431748e-01 -2.627815952505523911e-01 1.184417190247257112e+00 -2.016739525313071102e+00 -3.136067883349097918e-01 7.788672715155410542e-02 6.755463797280005789e-01 -1.517726158974039397e+00 1.979242496152656128e-01 -4.157237201133829885e-01 1.844466397163672555e+00 -1.342657303343600672e-01
-3.550645714203998216e-01 2.423766423403230785e-01 -2.921193393782079983e-01 7.452941601400457916e-01 -1.516166884809150295e-01 -4.156707887263536572e-01 -5.500940167502013090e-01 5.959754668508736586e-01 -2.032220283137060046e-01 1.163298798301544146e+00 -3.031955891843344797e-01 -3.607800381444318250e-01
-1.109217130698230358e+00 -4.867537884179257146e-01 1.741549587191936421e+00 1.477877184330085747e+00 5.993302278838387176e-01 3.789091938446082497e-01 2.405927587668954537e+00 -6.204410620764122530e-01 4.465526557904234695e-01 -4.867789593048060248e-01 -2.228670259615905258e-01 9.248718855761962898e-02
-1.075258363531098604e+00 9.039056155490309274e-01 1.411584469609813153e-01 -1.010032806904913150e+00 -4.252783646076947477e-01 8.632841738690785194e-01 -2.402087344572016170e-01 -3.851212452756536120e-01 -9.548462153744194936e-01 1.291496505513741955e+00 4.099890475295605574e-01 -5.345382221029586489e-01
